%!PS-Adobe-2.0 EPSF-2.0
%%Title: F-Score.eps
%%Creator: gnuplot 4.6 patchlevel 4
%%CreationDate: Fri Sep  4 11:54:55 2015
%%DocumentFonts: (atend)
%%BoundingBox: 50 50 410 302
%%EndComments
%%BeginProlog
/gnudict 256 dict def
gnudict begin
%
% The following true/false flags may be edited by hand if desired.
% The unit line width and grayscale image gamma correction may also be changed.
%
/Color true def
/Blacktext true def
/Solid false def
/Dashlength 1 def
/Landscape false def
/Level1 false def
/Rounded false def
/ClipToBoundingBox false def
/SuppressPDFMark false def
/TransparentPatterns false def
/gnulinewidth 5.000 def
/userlinewidth gnulinewidth def
/Gamma 1.0 def
/BackgroundColor {-1.000 -1.000 -1.000} def
%
/vshift -80 def
/dl1 {
  10.0 Dashlength mul mul
  Rounded { currentlinewidth 0.75 mul sub dup 0 le { pop 0.01 } if } if
} def
/dl2 {
  10.0 Dashlength mul mul
  Rounded { currentlinewidth 0.75 mul add } if
} def
/hpt_ 31.5 def
/vpt_ 31.5 def
/hpt hpt_ def
/vpt vpt_ def
/doclip {
  ClipToBoundingBox {
    newpath 50 50 moveto 410 50 lineto 410 302 lineto 50 302 lineto closepath
    clip
  } if
} def
%
% Gnuplot Prolog Version 4.6 (September 2012)
%
%/SuppressPDFMark true def
%
/M {moveto} bind def
/L {lineto} bind def
/R {rmoveto} bind def
/V {rlineto} bind def
/N {newpath moveto} bind def
/Z {closepath} bind def
/C {setrgbcolor} bind def
/f {rlineto fill} bind def
/g {setgray} bind def
/Gshow {show} def   % May be redefined later in the file to support UTF-8
/vpt2 vpt 2 mul def
/hpt2 hpt 2 mul def
/Lshow {currentpoint stroke M 0 vshift R 
	Blacktext {gsave 0 setgray show grestore} {show} ifelse} def
/Rshow {currentpoint stroke M dup stringwidth pop neg vshift R
	Blacktext {gsave 0 setgray show grestore} {show} ifelse} def
/Cshow {currentpoint stroke M dup stringwidth pop -2 div vshift R 
	Blacktext {gsave 0 setgray show grestore} {show} ifelse} def
/UP {dup vpt_ mul /vpt exch def hpt_ mul /hpt exch def
  /hpt2 hpt 2 mul def /vpt2 vpt 2 mul def} def
/DL {Color {setrgbcolor Solid {pop []} if 0 setdash}
 {pop pop pop 0 setgray Solid {pop []} if 0 setdash} ifelse} def
/BL {stroke userlinewidth 2 mul setlinewidth
	Rounded {1 setlinejoin 1 setlinecap} if} def
/AL {stroke userlinewidth 2 div setlinewidth
	Rounded {1 setlinejoin 1 setlinecap} if} def
/UL {dup gnulinewidth mul /userlinewidth exch def
	dup 1 lt {pop 1} if 10 mul /udl exch def} def
/PL {stroke userlinewidth setlinewidth
	Rounded {1 setlinejoin 1 setlinecap} if} def
3.8 setmiterlimit
% Default Line colors
/LCw {1 1 1} def
/LCb {0 0 0} def
/LCa {0 0 0} def
/LC0 {1 0 0} def
/LC1 {0 1 0} def
/LC2 {0 0 1} def
/LC3 {1 0 1} def
/LC4 {0 1 1} def
/LC5 {1 1 0} def
/LC6 {0 0 0} def
/LC7 {1 0.3 0} def
/LC8 {0.5 0.5 0.5} def
% Default Line Types
/LTw {PL [] 1 setgray} def
/LTb {BL [] LCb DL} def
/LTa {AL [1 udl mul 2 udl mul] 0 setdash LCa setrgbcolor} def
/LT0 {PL [] LC0 DL} def
/LT1 {PL [4 dl1 2 dl2] LC1 DL} def
/LT2 {PL [2 dl1 3 dl2] LC2 DL} def
/LT3 {PL [1 dl1 1.5 dl2] LC3 DL} def
/LT4 {PL [6 dl1 2 dl2 1 dl1 2 dl2] LC4 DL} def
/LT5 {PL [3 dl1 3 dl2 1 dl1 3 dl2] LC5 DL} def
/LT6 {PL [2 dl1 2 dl2 2 dl1 6 dl2] LC6 DL} def
/LT7 {PL [1 dl1 2 dl2 6 dl1 2 dl2 1 dl1 2 dl2] LC7 DL} def
/LT8 {PL [2 dl1 2 dl2 2 dl1 2 dl2 2 dl1 2 dl2 2 dl1 4 dl2] LC8 DL} def
/Pnt {stroke [] 0 setdash gsave 1 setlinecap M 0 0 V stroke grestore} def
/Dia {stroke [] 0 setdash 2 copy vpt add M
  hpt neg vpt neg V hpt vpt neg V
  hpt vpt V hpt neg vpt V closepath stroke
  Pnt} def
/Pls {stroke [] 0 setdash vpt sub M 0 vpt2 V
  currentpoint stroke M
  hpt neg vpt neg R hpt2 0 V stroke
 } def
/Box {stroke [] 0 setdash 2 copy exch hpt sub exch vpt add M
  0 vpt2 neg V hpt2 0 V 0 vpt2 V
  hpt2 neg 0 V closepath stroke
  Pnt} def
/Crs {stroke [] 0 setdash exch hpt sub exch vpt add M
  hpt2 vpt2 neg V currentpoint stroke M
  hpt2 neg 0 R hpt2 vpt2 V stroke} def
/TriU {stroke [] 0 setdash 2 copy vpt 1.12 mul add M
  hpt neg vpt -1.62 mul V
  hpt 2 mul 0 V
  hpt neg vpt 1.62 mul V closepath stroke
  Pnt} def
/Star {2 copy Pls Crs} def
/BoxF {stroke [] 0 setdash exch hpt sub exch vpt add M
  0 vpt2 neg V hpt2 0 V 0 vpt2 V
  hpt2 neg 0 V closepath fill} def
/TriUF {stroke [] 0 setdash vpt 1.12 mul add M
  hpt neg vpt -1.62 mul V
  hpt 2 mul 0 V
  hpt neg vpt 1.62 mul V closepath fill} def
/TriD {stroke [] 0 setdash 2 copy vpt 1.12 mul sub M
  hpt neg vpt 1.62 mul V
  hpt 2 mul 0 V
  hpt neg vpt -1.62 mul V closepath stroke
  Pnt} def
/TriDF {stroke [] 0 setdash vpt 1.12 mul sub M
  hpt neg vpt 1.62 mul V
  hpt 2 mul 0 V
  hpt neg vpt -1.62 mul V closepath fill} def
/DiaF {stroke [] 0 setdash vpt add M
  hpt neg vpt neg V hpt vpt neg V
  hpt vpt V hpt neg vpt V closepath fill} def
/Pent {stroke [] 0 setdash 2 copy gsave
  translate 0 hpt M 4 {72 rotate 0 hpt L} repeat
  closepath stroke grestore Pnt} def
/PentF {stroke [] 0 setdash gsave
  translate 0 hpt M 4 {72 rotate 0 hpt L} repeat
  closepath fill grestore} def
/Circle {stroke [] 0 setdash 2 copy
  hpt 0 360 arc stroke Pnt} def
/CircleF {stroke [] 0 setdash hpt 0 360 arc fill} def
/C0 {BL [] 0 setdash 2 copy moveto vpt 90 450 arc} bind def
/C1 {BL [] 0 setdash 2 copy moveto
	2 copy vpt 0 90 arc closepath fill
	vpt 0 360 arc closepath} bind def
/C2 {BL [] 0 setdash 2 copy moveto
	2 copy vpt 90 180 arc closepath fill
	vpt 0 360 arc closepath} bind def
/C3 {BL [] 0 setdash 2 copy moveto
	2 copy vpt 0 180 arc closepath fill
	vpt 0 360 arc closepath} bind def
/C4 {BL [] 0 setdash 2 copy moveto
	2 copy vpt 180 270 arc closepath fill
	vpt 0 360 arc closepath} bind def
/C5 {BL [] 0 setdash 2 copy moveto
	2 copy vpt 0 90 arc
	2 copy moveto
	2 copy vpt 180 270 arc closepath fill
	vpt 0 360 arc} bind def
/C6 {BL [] 0 setdash 2 copy moveto
	2 copy vpt 90 270 arc closepath fill
	vpt 0 360 arc closepath} bind def
/C7 {BL [] 0 setdash 2 copy moveto
	2 copy vpt 0 270 arc closepath fill
	vpt 0 360 arc closepath} bind def
/C8 {BL [] 0 setdash 2 copy moveto
	2 copy vpt 270 360 arc closepath fill
	vpt 0 360 arc closepath} bind def
/C9 {BL [] 0 setdash 2 copy moveto
	2 copy vpt 270 450 arc closepath fill
	vpt 0 360 arc closepath} bind def
/C10 {BL [] 0 setdash 2 copy 2 copy moveto vpt 270 360 arc closepath fill
	2 copy moveto
	2 copy vpt 90 180 arc closepath fill
	vpt 0 360 arc closepath} bind def
/C11 {BL [] 0 setdash 2 copy moveto
	2 copy vpt 0 180 arc closepath fill
	2 copy moveto
	2 copy vpt 270 360 arc closepath fill
	vpt 0 360 arc closepath} bind def
/C12 {BL [] 0 setdash 2 copy moveto
	2 copy vpt 180 360 arc closepath fill
	vpt 0 360 arc closepath} bind def
/C13 {BL [] 0 setdash 2 copy moveto
	2 copy vpt 0 90 arc closepath fill
	2 copy moveto
	2 copy vpt 180 360 arc closepath fill
	vpt 0 360 arc closepath} bind def
/C14 {BL [] 0 setdash 2 copy moveto
	2 copy vpt 90 360 arc closepath fill
	vpt 0 360 arc} bind def
/C15 {BL [] 0 setdash 2 copy vpt 0 360 arc closepath fill
	vpt 0 360 arc closepath} bind def
/Rec {newpath 4 2 roll moveto 1 index 0 rlineto 0 exch rlineto
	neg 0 rlineto closepath} bind def
/Square {dup Rec} bind def
/Bsquare {vpt sub exch vpt sub exch vpt2 Square} bind def
/S0 {BL [] 0 setdash 2 copy moveto 0 vpt rlineto BL Bsquare} bind def
/S1 {BL [] 0 setdash 2 copy vpt Square fill Bsquare} bind def
/S2 {BL [] 0 setdash 2 copy exch vpt sub exch vpt Square fill Bsquare} bind def
/S3 {BL [] 0 setdash 2 copy exch vpt sub exch vpt2 vpt Rec fill Bsquare} bind def
/S4 {BL [] 0 setdash 2 copy exch vpt sub exch vpt sub vpt Square fill Bsquare} bind def
/S5 {BL [] 0 setdash 2 copy 2 copy vpt Square fill
	exch vpt sub exch vpt sub vpt Square fill Bsquare} bind def
/S6 {BL [] 0 setdash 2 copy exch vpt sub exch vpt sub vpt vpt2 Rec fill Bsquare} bind def
/S7 {BL [] 0 setdash 2 copy exch vpt sub exch vpt sub vpt vpt2 Rec fill
	2 copy vpt Square fill Bsquare} bind def
/S8 {BL [] 0 setdash 2 copy vpt sub vpt Square fill Bsquare} bind def
/S9 {BL [] 0 setdash 2 copy vpt sub vpt vpt2 Rec fill Bsquare} bind def
/S10 {BL [] 0 setdash 2 copy vpt sub vpt Square fill 2 copy exch vpt sub exch vpt Square fill
	Bsquare} bind def
/S11 {BL [] 0 setdash 2 copy vpt sub vpt Square fill 2 copy exch vpt sub exch vpt2 vpt Rec fill
	Bsquare} bind def
/S12 {BL [] 0 setdash 2 copy exch vpt sub exch vpt sub vpt2 vpt Rec fill Bsquare} bind def
/S13 {BL [] 0 setdash 2 copy exch vpt sub exch vpt sub vpt2 vpt Rec fill
	2 copy vpt Square fill Bsquare} bind def
/S14 {BL [] 0 setdash 2 copy exch vpt sub exch vpt sub vpt2 vpt Rec fill
	2 copy exch vpt sub exch vpt Square fill Bsquare} bind def
/S15 {BL [] 0 setdash 2 copy Bsquare fill Bsquare} bind def
/D0 {gsave translate 45 rotate 0 0 S0 stroke grestore} bind def
/D1 {gsave translate 45 rotate 0 0 S1 stroke grestore} bind def
/D2 {gsave translate 45 rotate 0 0 S2 stroke grestore} bind def
/D3 {gsave translate 45 rotate 0 0 S3 stroke grestore} bind def
/D4 {gsave translate 45 rotate 0 0 S4 stroke grestore} bind def
/D5 {gsave translate 45 rotate 0 0 S5 stroke grestore} bind def
/D6 {gsave translate 45 rotate 0 0 S6 stroke grestore} bind def
/D7 {gsave translate 45 rotate 0 0 S7 stroke grestore} bind def
/D8 {gsave translate 45 rotate 0 0 S8 stroke grestore} bind def
/D9 {gsave translate 45 rotate 0 0 S9 stroke grestore} bind def
/D10 {gsave translate 45 rotate 0 0 S10 stroke grestore} bind def
/D11 {gsave translate 45 rotate 0 0 S11 stroke grestore} bind def
/D12 {gsave translate 45 rotate 0 0 S12 stroke grestore} bind def
/D13 {gsave translate 45 rotate 0 0 S13 stroke grestore} bind def
/D14 {gsave translate 45 rotate 0 0 S14 stroke grestore} bind def
/D15 {gsave translate 45 rotate 0 0 S15 stroke grestore} bind def
/DiaE {stroke [] 0 setdash vpt add M
  hpt neg vpt neg V hpt vpt neg V
  hpt vpt V hpt neg vpt V closepath stroke} def
/BoxE {stroke [] 0 setdash exch hpt sub exch vpt add M
  0 vpt2 neg V hpt2 0 V 0 vpt2 V
  hpt2 neg 0 V closepath stroke} def
/TriUE {stroke [] 0 setdash vpt 1.12 mul add M
  hpt neg vpt -1.62 mul V
  hpt 2 mul 0 V
  hpt neg vpt 1.62 mul V closepath stroke} def
/TriDE {stroke [] 0 setdash vpt 1.12 mul sub M
  hpt neg vpt 1.62 mul V
  hpt 2 mul 0 V
  hpt neg vpt -1.62 mul V closepath stroke} def
/PentE {stroke [] 0 setdash gsave
  translate 0 hpt M 4 {72 rotate 0 hpt L} repeat
  closepath stroke grestore} def
/CircE {stroke [] 0 setdash 
  hpt 0 360 arc stroke} def
/Opaque {gsave closepath 1 setgray fill grestore 0 setgray closepath} def
/DiaW {stroke [] 0 setdash vpt add M
  hpt neg vpt neg V hpt vpt neg V
  hpt vpt V hpt neg vpt V Opaque stroke} def
/BoxW {stroke [] 0 setdash exch hpt sub exch vpt add M
  0 vpt2 neg V hpt2 0 V 0 vpt2 V
  hpt2 neg 0 V Opaque stroke} def
/TriUW {stroke [] 0 setdash vpt 1.12 mul add M
  hpt neg vpt -1.62 mul V
  hpt 2 mul 0 V
  hpt neg vpt 1.62 mul V Opaque stroke} def
/TriDW {stroke [] 0 setdash vpt 1.12 mul sub M
  hpt neg vpt 1.62 mul V
  hpt 2 mul 0 V
  hpt neg vpt -1.62 mul V Opaque stroke} def
/PentW {stroke [] 0 setdash gsave
  translate 0 hpt M 4 {72 rotate 0 hpt L} repeat
  Opaque stroke grestore} def
/CircW {stroke [] 0 setdash 
  hpt 0 360 arc Opaque stroke} def
/BoxFill {gsave Rec 1 setgray fill grestore} def
/Density {
  /Fillden exch def
  currentrgbcolor
  /ColB exch def /ColG exch def /ColR exch def
  /ColR ColR Fillden mul Fillden sub 1 add def
  /ColG ColG Fillden mul Fillden sub 1 add def
  /ColB ColB Fillden mul Fillden sub 1 add def
  ColR ColG ColB setrgbcolor} def
/BoxColFill {gsave Rec PolyFill} def
/PolyFill {gsave Density fill grestore grestore} def
/h {rlineto rlineto rlineto gsave closepath fill grestore} bind def
%
% PostScript Level 1 Pattern Fill routine for rectangles
% Usage: x y w h s a XX PatternFill
%	x,y = lower left corner of box to be filled
%	w,h = width and height of box
%	  a = angle in degrees between lines and x-axis
%	 XX = 0/1 for no/yes cross-hatch
%
/PatternFill {gsave /PFa [ 9 2 roll ] def
  PFa 0 get PFa 2 get 2 div add PFa 1 get PFa 3 get 2 div add translate
  PFa 2 get -2 div PFa 3 get -2 div PFa 2 get PFa 3 get Rec
  TransparentPatterns {} {gsave 1 setgray fill grestore} ifelse
  clip
  currentlinewidth 0.5 mul setlinewidth
  /PFs PFa 2 get dup mul PFa 3 get dup mul add sqrt def
  0 0 M PFa 5 get rotate PFs -2 div dup translate
  0 1 PFs PFa 4 get div 1 add floor cvi
	{PFa 4 get mul 0 M 0 PFs V} for
  0 PFa 6 get ne {
	0 1 PFs PFa 4 get div 1 add floor cvi
	{PFa 4 get mul 0 2 1 roll M PFs 0 V} for
 } if
  stroke grestore} def
%
/languagelevel where
 {pop languagelevel} {1} ifelse
 2 lt
	{/InterpretLevel1 true def}
	{/InterpretLevel1 Level1 def}
 ifelse
%
% PostScript level 2 pattern fill definitions
%
/Level2PatternFill {
/Tile8x8 {/PaintType 2 /PatternType 1 /TilingType 1 /BBox [0 0 8 8] /XStep 8 /YStep 8}
	bind def
/KeepColor {currentrgbcolor [/Pattern /DeviceRGB] setcolorspace} bind def
<< Tile8x8
 /PaintProc {0.5 setlinewidth pop 0 0 M 8 8 L 0 8 M 8 0 L stroke} 
>> matrix makepattern
/Pat1 exch def
<< Tile8x8
 /PaintProc {0.5 setlinewidth pop 0 0 M 8 8 L 0 8 M 8 0 L stroke
	0 4 M 4 8 L 8 4 L 4 0 L 0 4 L stroke}
>> matrix makepattern
/Pat2 exch def
<< Tile8x8
 /PaintProc {0.5 setlinewidth pop 0 0 M 0 8 L
	8 8 L 8 0 L 0 0 L fill}
>> matrix makepattern
/Pat3 exch def
<< Tile8x8
 /PaintProc {0.5 setlinewidth pop -4 8 M 8 -4 L
	0 12 M 12 0 L stroke}
>> matrix makepattern
/Pat4 exch def
<< Tile8x8
 /PaintProc {0.5 setlinewidth pop -4 0 M 8 12 L
	0 -4 M 12 8 L stroke}
>> matrix makepattern
/Pat5 exch def
<< Tile8x8
 /PaintProc {0.5 setlinewidth pop -2 8 M 4 -4 L
	0 12 M 8 -4 L 4 12 M 10 0 L stroke}
>> matrix makepattern
/Pat6 exch def
<< Tile8x8
 /PaintProc {0.5 setlinewidth pop -2 0 M 4 12 L
	0 -4 M 8 12 L 4 -4 M 10 8 L stroke}
>> matrix makepattern
/Pat7 exch def
<< Tile8x8
 /PaintProc {0.5 setlinewidth pop 8 -2 M -4 4 L
	12 0 M -4 8 L 12 4 M 0 10 L stroke}
>> matrix makepattern
/Pat8 exch def
<< Tile8x8
 /PaintProc {0.5 setlinewidth pop 0 -2 M 12 4 L
	-4 0 M 12 8 L -4 4 M 8 10 L stroke}
>> matrix makepattern
/Pat9 exch def
/Pattern1 {PatternBgnd KeepColor Pat1 setpattern} bind def
/Pattern2 {PatternBgnd KeepColor Pat2 setpattern} bind def
/Pattern3 {PatternBgnd KeepColor Pat3 setpattern} bind def
/Pattern4 {PatternBgnd KeepColor Landscape {Pat5} {Pat4} ifelse setpattern} bind def
/Pattern5 {PatternBgnd KeepColor Landscape {Pat4} {Pat5} ifelse setpattern} bind def
/Pattern6 {PatternBgnd KeepColor Landscape {Pat9} {Pat6} ifelse setpattern} bind def
/Pattern7 {PatternBgnd KeepColor Landscape {Pat8} {Pat7} ifelse setpattern} bind def
} def
%
%
%End of PostScript Level 2 code
%
/PatternBgnd {
  TransparentPatterns {} {gsave 1 setgray fill grestore} ifelse
} def
%
% Substitute for Level 2 pattern fill codes with
% grayscale if Level 2 support is not selected.
%
/Level1PatternFill {
/Pattern1 {0.250 Density} bind def
/Pattern2 {0.500 Density} bind def
/Pattern3 {0.750 Density} bind def
/Pattern4 {0.125 Density} bind def
/Pattern5 {0.375 Density} bind def
/Pattern6 {0.625 Density} bind def
/Pattern7 {0.875 Density} bind def
} def
%
% Now test for support of Level 2 code
%
Level1 {Level1PatternFill} {Level2PatternFill} ifelse
%
/Symbol-Oblique /Symbol findfont [1 0 .167 1 0 0] makefont
dup length dict begin {1 index /FID eq {pop pop} {def} ifelse} forall
currentdict end definefont pop
Level1 SuppressPDFMark or 
{} {
/SDict 10 dict def
systemdict /pdfmark known not {
  userdict /pdfmark systemdict /cleartomark get put
} if
SDict begin [
  /Title (F-Score.eps)
  /Subject (gnuplot plot)
  /Creator (gnuplot 4.6 patchlevel 4)
  /Author (danny)
%  /Producer (gnuplot)
%  /Keywords ()
  /CreationDate (Fri Sep  4 11:54:55 2015)
  /DOCINFO pdfmark
end
} ifelse
end
%%EndProlog
%%Page: 1 1
gnudict begin
gsave
doclip
50 50 translate
0.050 0.050 scale
0 setgray
newpath
(Helvetica) findfont 240 scalefont setfont
BackgroundColor 0 lt 3 1 roll 0 lt exch 0 lt or or not {BackgroundColor C 1.000 0 0 7200.00 5040.00 BoxColFill} if
1.000 UL
LTb
LCb setrgbcolor
1.000 UL
LTa
LCa setrgbcolor
1176 768 M
5591 0 V
stroke
LTb
LCb setrgbcolor
1176 768 M
63 0 V
/Helvetica findfont 140 scalefont setfont
/vshift -46 def
-207 0 R
( 0.4) Rshow
/Helvetica findfont 240 scalefont setfont
/vshift -80 def
1.000 UL
LTb
LCb setrgbcolor
1.000 UL
LTa
LCa setrgbcolor
1176 1432 M
5591 0 V
stroke
LTb
LCb setrgbcolor
1176 1432 M
63 0 V
/Helvetica findfont 140 scalefont setfont
/vshift -46 def
-207 0 R
( 0.5) Rshow
/Helvetica findfont 240 scalefont setfont
/vshift -80 def
1.000 UL
LTb
LCb setrgbcolor
1.000 UL
LTa
LCa setrgbcolor
1176 2096 M
5591 0 V
stroke
LTb
LCb setrgbcolor
1176 2096 M
63 0 V
/Helvetica findfont 140 scalefont setfont
/vshift -46 def
-207 0 R
( 0.6) Rshow
/Helvetica findfont 240 scalefont setfont
/vshift -80 def
1.000 UL
LTb
LCb setrgbcolor
1.000 UL
LTa
LCa setrgbcolor
1176 2760 M
5591 0 V
stroke
LTb
LCb setrgbcolor
1176 2760 M
63 0 V
/Helvetica findfont 140 scalefont setfont
/vshift -46 def
-207 0 R
( 0.7) Rshow
/Helvetica findfont 240 scalefont setfont
/vshift -80 def
1.000 UL
LTb
LCb setrgbcolor
1.000 UL
LTa
LCa setrgbcolor
1176 3423 M
5591 0 V
stroke
LTb
LCb setrgbcolor
1176 3423 M
63 0 V
/Helvetica findfont 140 scalefont setfont
/vshift -46 def
-207 0 R
( 0.8) Rshow
/Helvetica findfont 240 scalefont setfont
/vshift -80 def
1.000 UL
LTb
LCb setrgbcolor
1.000 UL
LTa
LCa setrgbcolor
1176 4087 M
5591 0 V
stroke
LTb
LCb setrgbcolor
1176 4087 M
63 0 V
/Helvetica findfont 140 scalefont setfont
/vshift -46 def
-207 0 R
( 0.9) Rshow
/Helvetica findfont 240 scalefont setfont
/vshift -80 def
1.000 UL
LTb
LCb setrgbcolor
1.000 UL
LTa
LCa setrgbcolor
1176 4751 M
5591 0 V
stroke
LTb
LCb setrgbcolor
1176 4751 M
63 0 V
/Helvetica findfont 140 scalefont setfont
/vshift -46 def
-207 0 R
( 1) Rshow
/Helvetica findfont 240 scalefont setfont
/vshift -80 def
1.000 UL
LTb
LCb setrgbcolor
1.000 UL
LTa
LCa setrgbcolor
1176 768 M
0 3983 V
stroke
LTb
LCb setrgbcolor
1176 768 M
0 63 V
/Helvetica findfont 140 scalefont setfont
/vshift -46 def
0 -303 R
( 0) Cshow
/Helvetica findfont 240 scalefont setfont
/vshift -80 def
1.000 UL
LTb
LCb setrgbcolor
1.000 UL
LTa
LCa setrgbcolor
1735 768 M
0 3983 V
stroke
LTb
LCb setrgbcolor
1735 768 M
0 63 V
/Helvetica findfont 140 scalefont setfont
/vshift -46 def
0 -303 R
( 50) Cshow
/Helvetica findfont 240 scalefont setfont
/vshift -80 def
1.000 UL
LTb
LCb setrgbcolor
1.000 UL
LTa
LCa setrgbcolor
2294 768 M
0 3983 V
stroke
LTb
LCb setrgbcolor
2294 768 M
0 63 V
/Helvetica findfont 140 scalefont setfont
/vshift -46 def
0 -303 R
( 100) Cshow
/Helvetica findfont 240 scalefont setfont
/vshift -80 def
1.000 UL
LTb
LCb setrgbcolor
1.000 UL
LTa
LCa setrgbcolor
2853 768 M
0 3983 V
stroke
LTb
LCb setrgbcolor
2853 768 M
0 63 V
/Helvetica findfont 140 scalefont setfont
/vshift -46 def
0 -303 R
( 150) Cshow
/Helvetica findfont 240 scalefont setfont
/vshift -80 def
1.000 UL
LTb
LCb setrgbcolor
1.000 UL
LTa
LCa setrgbcolor
3412 768 M
0 3983 V
stroke
LTb
LCb setrgbcolor
3412 768 M
0 63 V
/Helvetica findfont 140 scalefont setfont
/vshift -46 def
0 -303 R
( 200) Cshow
/Helvetica findfont 240 scalefont setfont
/vshift -80 def
1.000 UL
LTb
LCb setrgbcolor
1.000 UL
LTa
LCa setrgbcolor
3972 768 M
0 3983 V
stroke
LTb
LCb setrgbcolor
3972 768 M
0 63 V
/Helvetica findfont 140 scalefont setfont
/vshift -46 def
0 -303 R
( 250) Cshow
/Helvetica findfont 240 scalefont setfont
/vshift -80 def
1.000 UL
LTb
LCb setrgbcolor
1.000 UL
LTa
LCa setrgbcolor
4531 768 M
0 3983 V
stroke
LTb
LCb setrgbcolor
4531 768 M
0 63 V
/Helvetica findfont 140 scalefont setfont
/vshift -46 def
0 -303 R
( 300) Cshow
/Helvetica findfont 240 scalefont setfont
/vshift -80 def
1.000 UL
LTb
LCb setrgbcolor
1.000 UL
LTa
LCa setrgbcolor
5090 768 M
0 3983 V
stroke
LTb
LCb setrgbcolor
5090 768 M
0 63 V
/Helvetica findfont 140 scalefont setfont
/vshift -46 def
0 -303 R
( 350) Cshow
/Helvetica findfont 240 scalefont setfont
/vshift -80 def
1.000 UL
LTb
LCb setrgbcolor
1.000 UL
LTa
LCa setrgbcolor
5649 768 M
0 3983 V
stroke
LTb
LCb setrgbcolor
5649 768 M
0 63 V
/Helvetica findfont 140 scalefont setfont
/vshift -46 def
0 -303 R
( 400) Cshow
/Helvetica findfont 240 scalefont setfont
/vshift -80 def
1.000 UL
LTb
LCb setrgbcolor
1.000 UL
LTa
LCa setrgbcolor
6208 768 M
0 3983 V
stroke
LTb
LCb setrgbcolor
6208 768 M
0 63 V
/Helvetica findfont 140 scalefont setfont
/vshift -46 def
0 -303 R
( 450) Cshow
/Helvetica findfont 240 scalefont setfont
/vshift -80 def
1.000 UL
LTb
LCb setrgbcolor
1.000 UL
LTa
LCa setrgbcolor
6767 768 M
0 3983 V
stroke
LTb
LCb setrgbcolor
6767 768 M
0 63 V
/Helvetica findfont 140 scalefont setfont
/vshift -46 def
0 -303 R
( 500) Cshow
/Helvetica findfont 240 scalefont setfont
/vshift -80 def
1.000 UL
LTb
LCb setrgbcolor
1.000 UL
LTb
LCb setrgbcolor
1176 4751 N
0 -3983 V
5591 0 V
0 3983 V
-5591 0 V
Z stroke
LCb setrgbcolor
/Helvetica findfont 160 scalefont setfont
/vshift -53 def
192 2759 M
currentpoint gsave translate -270 rotate 0 0 M
(F-Score) Cshow
grestore
/Helvetica findfont 240 scalefont setfont
/vshift -80 def
LTb
LCb setrgbcolor
/Helvetica findfont 160 scalefont setfont
/vshift -53 def
3971 168 M
(Iterationen in 100) Cshow
/Helvetica findfont 240 scalefont setfont
/vshift -80 def
LTb
1.000 UP
1.000 UL
LTb
LCb setrgbcolor
% Begin plot #1
1.000 UL
LT0
0.00 0.00 0.00 C /Helvetica findfont 240 scalefont setfont
1183 768 M
4 1688 V
11 285 V
12 214 V
11 83 V
11 154 V
11 7 V
11 61 V
11 -5 V
12 272 V
11 -2363 V
11 2224 V
11 -697 V
11 822 V
12 -1587 V
11 1738 V
11 -184 V
11 70 V
11 -1556 V
11 451 V
12 1128 V
11 -1224 V
11 -315 V
11 -139 V
11 1692 V
12 -2047 V
11 544 V
11 -132 V
11 1749 V
11 52 V
11 -81 V
12 99 V
11 -96 V
11 42 V
11 -16 V
11 -137 V
12 -30 V
11 -1222 V
11 1159 V
11 94 V
11 79 V
11 69 V
12 -112 V
11 38 V
11 -50 V
11 99 V
11 -12 V
12 6 V
11 52 V
11 -15 V
11 -14 V
11 47 V
11 76 V
12 -61 V
11 -103 V
11 88 V
11 -50 V
11 -16 V
12 -736 V
11 -355 V
11 1145 V
11 90 V
11 -740 V
11 739 V
12 -156 V
11 -11 V
11 75 V
11 -418 V
11 381 V
12 -531 V
11 70 V
11 -238 V
11 770 V
11 -70 V
11 -806 V
12 1000 V
11 -244 V
11 33 V
11 -172 V
11 350 V
12 5 V
11 -23 V
11 -302 V
11 -504 V
11 907 V
11 -1082 V
12 980 V
11 -154 V
11 97 V
11 15 V
11 -19 V
12 -1132 V
11 518 V
11 667 V
11 -76 V
11 -190 V
11 -273 V
12 562 V
11 -498 V
11 498 V
11 -538 V
11 419 V
12 109 V
11 -910 V
11 589 V
stroke 2339 3527 M
11 -205 V
11 426 V
11 -496 V
12 264 V
11 289 V
11 -179 V
11 -315 V
11 154 V
12 -565 V
11 638 V
11 218 V
11 32 V
11 66 V
11 23 V
12 -105 V
11 -96 V
11 -178 V
11 356 V
11 3 V
12 -120 V
11 74 V
11 18 V
11 -22 V
11 20 V
11 -51 V
12 5 V
11 -464 V
11 -69 V
11 670 V
11 -16 V
12 -84 V
11 -329 V
11 390 V
11 64 V
11 -534 V
11 509 V
12 -410 V
11 281 V
11 -222 V
11 293 V
11 20 V
12 -535 V
11 36 V
11 582 V
11 -185 V
11 101 V
11 25 V
12 -93 V
11 -652 V
11 753 V
11 -83 V
11 -699 V
12 381 V
11 486 V
11 -550 V
11 -172 V
11 542 V
11 28 V
12 -87 V
11 129 V
11 -90 V
11 -43 V
11 -381 V
12 551 V
11 -5 V
11 -487 V
11 109 V
11 -73 V
11 449 V
12 4 V
11 -89 V
11 -63 V
11 60 V
11 35 V
12 121 V
11 -382 V
11 -36 V
11 -82 V
11 -17 V
11 180 V
12 187 V
11 -6 V
11 128 V
11 -403 V
11 -317 V
12 347 V
11 386 V
11 -607 V
11 149 V
11 441 V
11 -48 V
12 -33 V
11 -34 V
11 93 V
11 -30 V
11 -285 V
12 396 V
11 -359 V
11 341 V
11 -91 V
11 53 V
11 -50 V
12 -231 V
11 272 V
stroke 3502 3947 M
11 -530 V
11 570 V
11 -61 V
12 -35 V
11 -40 V
11 -107 V
11 166 V
11 -693 V
11 298 V
12 409 V
11 -398 V
11 306 V
11 123 V
11 -21 V
12 -4 V
11 -656 V
11 474 V
11 -311 V
11 419 V
11 44 V
12 49 V
11 -25 V
11 7 V
11 -102 V
11 5 V
12 -399 V
11 -62 V
11 115 V
11 -70 V
11 514 V
11 -71 V
12 -15 V
11 -333 V
11 347 V
11 -689 V
11 99 V
12 627 V
11 -80 V
11 125 V
11 -144 V
11 100 V
12 -386 V
11 -191 V
11 532 V
11 162 V
11 -719 V
11 644 V
12 64 V
11 -96 V
11 46 V
11 -56 V
11 54 V
12 -155 V
11 115 V
11 -418 V
11 530 V
11 -471 V
11 -204 V
12 205 V
11 395 V
11 -544 V
11 135 V
11 -122 V
12 429 V
11 81 V
11 48 V
11 -97 V
11 46 V
11 29 V
12 -171 V
11 69 V
11 36 V
11 -307 V
11 26 V
12 208 V
11 160 V
11 -375 V
11 254 V
11 71 V
11 -286 V
12 340 V
11 -70 V
11 38 V
11 -2 V
11 -165 V
12 173 V
11 -115 V
11 -26 V
11 11 V
11 -397 V
11 478 V
12 -227 V
11 280 V
11 -8 V
11 -85 V
11 88 V
12 -70 V
11 -145 V
11 -159 V
11 5 V
11 260 V
11 -387 V
12 494 V
11 -54 V
stroke 4665 3896 M
11 -191 V
11 287 V
11 9 V
12 -704 V
11 323 V
11 -256 V
11 647 V
11 -112 V
11 14 V
12 -44 V
11 -53 V
11 22 V
11 15 V
11 -225 V
12 314 V
11 -43 V
11 17 V
11 57 V
11 -474 V
11 85 V
12 106 V
11 178 V
11 84 V
11 -115 V
11 186 V
12 -53 V
11 -116 V
11 -242 V
11 -147 V
11 389 V
11 77 V
12 -46 V
11 69 V
11 -377 V
11 99 V
11 -119 V
12 309 V
11 128 V
11 -168 V
11 -386 V
11 434 V
11 -369 V
12 493 V
11 -45 V
11 -105 V
11 30 V
11 -112 V
12 113 V
11 -322 V
11 133 V
11 7 V
11 199 V
11 -106 V
12 -244 V
11 351 V
11 88 V
11 -470 V
11 353 V
12 -34 V
11 -305 V
11 295 V
11 -79 V
11 137 V
11 -394 V
12 484 V
11 -146 V
11 -221 V
11 -109 V
11 -10 V
12 188 V
11 351 V
11 -382 V
11 -184 V
11 545 V
11 -276 V
12 123 V
11 -475 V
11 433 V
11 174 V
11 -92 V
12 11 V
11 59 V
11 -118 V
11 -19 V
11 155 V
11 -76 V
12 -210 V
11 -83 V
11 78 V
11 -169 V
11 434 V
12 -407 V
11 433 V
11 -99 V
11 48 V
11 50 V
11 -493 V
12 150 V
11 312 V
11 -62 V
11 -48 V
11 3 V
12 52 V
11 -45 V
stroke 5828 3847 M
11 149 V
11 -116 V
11 65 V
11 26 V
12 -282 V
11 211 V
11 72 V
11 -136 V
11 45 V
12 25 V
11 -210 V
11 280 V
11 -369 V
11 243 V
11 35 V
12 21 V
11 -432 V
11 -54 V
11 273 V
11 293 V
12 -6 V
11 -87 V
11 100 V
11 -101 V
11 74 V
11 -144 V
12 -173 V
11 25 V
11 -237 V
11 445 V
11 -289 V
12 346 V
11 -122 V
11 212 V
11 -193 V
11 -313 V
11 480 V
12 -419 V
11 430 V
11 -225 V
11 201 V
11 -306 V
12 97 V
11 91 V
11 -7 V
11 33 V
11 67 V
11 31 V
12 -85 V
11 -32 V
11 -278 V
11 115 V
11 285 V
12 -61 V
11 8 V
11 -128 V
11 132 V
11 17 V
11 17 V
12 -80 V
11 -440 V
11 114 V
11 242 V
11 26 V
12 -482 V
11 611 V
11 6 V
11 -137 V
11 25 V
11 124 V
12 -139 V
11 93 V
11 52 V
11 -98 V
11 -277 V
12 371 V
11 -92 V
11 -198 V
11 310 V
11 -354 V
11 43 V
12 -241 V
11 150 V
% End plot #1
stroke
LTb
LCb setrgbcolor
1176 4751 N
0 -3983 V
5591 0 V
0 3983 V
-5591 0 V
Z stroke
1.000 UP
1.000 UL
LTb
LCb setrgbcolor
stroke
grestore
end
showpage
%%Trailer
%%DocumentFonts: Helvetica
