%!PS-Adobe-2.0 EPSF-2.0
%%Title: Recall.eps
%%Creator: gnuplot 4.6 patchlevel 4
%%CreationDate: Fri Sep  4 11:56:38 2015
%%DocumentFonts: (atend)
%%BoundingBox: 50 50 410 302
%%EndComments
%%BeginProlog
/gnudict 256 dict def
gnudict begin
%
% The following true/false flags may be edited by hand if desired.
% The unit line width and grayscale image gamma correction may also be changed.
%
/Color true def
/Blacktext true def
/Solid false def
/Dashlength 1 def
/Landscape false def
/Level1 false def
/Rounded false def
/ClipToBoundingBox false def
/SuppressPDFMark false def
/TransparentPatterns false def
/gnulinewidth 5.000 def
/userlinewidth gnulinewidth def
/Gamma 1.0 def
/BackgroundColor {-1.000 -1.000 -1.000} def
%
/vshift -80 def
/dl1 {
  10.0 Dashlength mul mul
  Rounded { currentlinewidth 0.75 mul sub dup 0 le { pop 0.01 } if } if
} def
/dl2 {
  10.0 Dashlength mul mul
  Rounded { currentlinewidth 0.75 mul add } if
} def
/hpt_ 31.5 def
/vpt_ 31.5 def
/hpt hpt_ def
/vpt vpt_ def
/doclip {
  ClipToBoundingBox {
    newpath 50 50 moveto 410 50 lineto 410 302 lineto 50 302 lineto closepath
    clip
  } if
} def
%
% Gnuplot Prolog Version 4.6 (September 2012)
%
%/SuppressPDFMark true def
%
/M {moveto} bind def
/L {lineto} bind def
/R {rmoveto} bind def
/V {rlineto} bind def
/N {newpath moveto} bind def
/Z {closepath} bind def
/C {setrgbcolor} bind def
/f {rlineto fill} bind def
/g {setgray} bind def
/Gshow {show} def   % May be redefined later in the file to support UTF-8
/vpt2 vpt 2 mul def
/hpt2 hpt 2 mul def
/Lshow {currentpoint stroke M 0 vshift R 
	Blacktext {gsave 0 setgray show grestore} {show} ifelse} def
/Rshow {currentpoint stroke M dup stringwidth pop neg vshift R
	Blacktext {gsave 0 setgray show grestore} {show} ifelse} def
/Cshow {currentpoint stroke M dup stringwidth pop -2 div vshift R 
	Blacktext {gsave 0 setgray show grestore} {show} ifelse} def
/UP {dup vpt_ mul /vpt exch def hpt_ mul /hpt exch def
  /hpt2 hpt 2 mul def /vpt2 vpt 2 mul def} def
/DL {Color {setrgbcolor Solid {pop []} if 0 setdash}
 {pop pop pop 0 setgray Solid {pop []} if 0 setdash} ifelse} def
/BL {stroke userlinewidth 2 mul setlinewidth
	Rounded {1 setlinejoin 1 setlinecap} if} def
/AL {stroke userlinewidth 2 div setlinewidth
	Rounded {1 setlinejoin 1 setlinecap} if} def
/UL {dup gnulinewidth mul /userlinewidth exch def
	dup 1 lt {pop 1} if 10 mul /udl exch def} def
/PL {stroke userlinewidth setlinewidth
	Rounded {1 setlinejoin 1 setlinecap} if} def
3.8 setmiterlimit
% Default Line colors
/LCw {1 1 1} def
/LCb {0 0 0} def
/LCa {0 0 0} def
/LC0 {1 0 0} def
/LC1 {0 1 0} def
/LC2 {0 0 1} def
/LC3 {1 0 1} def
/LC4 {0 1 1} def
/LC5 {1 1 0} def
/LC6 {0 0 0} def
/LC7 {1 0.3 0} def
/LC8 {0.5 0.5 0.5} def
% Default Line Types
/LTw {PL [] 1 setgray} def
/LTb {BL [] LCb DL} def
/LTa {AL [1 udl mul 2 udl mul] 0 setdash LCa setrgbcolor} def
/LT0 {PL [] LC0 DL} def
/LT1 {PL [4 dl1 2 dl2] LC1 DL} def
/LT2 {PL [2 dl1 3 dl2] LC2 DL} def
/LT3 {PL [1 dl1 1.5 dl2] LC3 DL} def
/LT4 {PL [6 dl1 2 dl2 1 dl1 2 dl2] LC4 DL} def
/LT5 {PL [3 dl1 3 dl2 1 dl1 3 dl2] LC5 DL} def
/LT6 {PL [2 dl1 2 dl2 2 dl1 6 dl2] LC6 DL} def
/LT7 {PL [1 dl1 2 dl2 6 dl1 2 dl2 1 dl1 2 dl2] LC7 DL} def
/LT8 {PL [2 dl1 2 dl2 2 dl1 2 dl2 2 dl1 2 dl2 2 dl1 4 dl2] LC8 DL} def
/Pnt {stroke [] 0 setdash gsave 1 setlinecap M 0 0 V stroke grestore} def
/Dia {stroke [] 0 setdash 2 copy vpt add M
  hpt neg vpt neg V hpt vpt neg V
  hpt vpt V hpt neg vpt V closepath stroke
  Pnt} def
/Pls {stroke [] 0 setdash vpt sub M 0 vpt2 V
  currentpoint stroke M
  hpt neg vpt neg R hpt2 0 V stroke
 } def
/Box {stroke [] 0 setdash 2 copy exch hpt sub exch vpt add M
  0 vpt2 neg V hpt2 0 V 0 vpt2 V
  hpt2 neg 0 V closepath stroke
  Pnt} def
/Crs {stroke [] 0 setdash exch hpt sub exch vpt add M
  hpt2 vpt2 neg V currentpoint stroke M
  hpt2 neg 0 R hpt2 vpt2 V stroke} def
/TriU {stroke [] 0 setdash 2 copy vpt 1.12 mul add M
  hpt neg vpt -1.62 mul V
  hpt 2 mul 0 V
  hpt neg vpt 1.62 mul V closepath stroke
  Pnt} def
/Star {2 copy Pls Crs} def
/BoxF {stroke [] 0 setdash exch hpt sub exch vpt add M
  0 vpt2 neg V hpt2 0 V 0 vpt2 V
  hpt2 neg 0 V closepath fill} def
/TriUF {stroke [] 0 setdash vpt 1.12 mul add M
  hpt neg vpt -1.62 mul V
  hpt 2 mul 0 V
  hpt neg vpt 1.62 mul V closepath fill} def
/TriD {stroke [] 0 setdash 2 copy vpt 1.12 mul sub M
  hpt neg vpt 1.62 mul V
  hpt 2 mul 0 V
  hpt neg vpt -1.62 mul V closepath stroke
  Pnt} def
/TriDF {stroke [] 0 setdash vpt 1.12 mul sub M
  hpt neg vpt 1.62 mul V
  hpt 2 mul 0 V
  hpt neg vpt -1.62 mul V closepath fill} def
/DiaF {stroke [] 0 setdash vpt add M
  hpt neg vpt neg V hpt vpt neg V
  hpt vpt V hpt neg vpt V closepath fill} def
/Pent {stroke [] 0 setdash 2 copy gsave
  translate 0 hpt M 4 {72 rotate 0 hpt L} repeat
  closepath stroke grestore Pnt} def
/PentF {stroke [] 0 setdash gsave
  translate 0 hpt M 4 {72 rotate 0 hpt L} repeat
  closepath fill grestore} def
/Circle {stroke [] 0 setdash 2 copy
  hpt 0 360 arc stroke Pnt} def
/CircleF {stroke [] 0 setdash hpt 0 360 arc fill} def
/C0 {BL [] 0 setdash 2 copy moveto vpt 90 450 arc} bind def
/C1 {BL [] 0 setdash 2 copy moveto
	2 copy vpt 0 90 arc closepath fill
	vpt 0 360 arc closepath} bind def
/C2 {BL [] 0 setdash 2 copy moveto
	2 copy vpt 90 180 arc closepath fill
	vpt 0 360 arc closepath} bind def
/C3 {BL [] 0 setdash 2 copy moveto
	2 copy vpt 0 180 arc closepath fill
	vpt 0 360 arc closepath} bind def
/C4 {BL [] 0 setdash 2 copy moveto
	2 copy vpt 180 270 arc closepath fill
	vpt 0 360 arc closepath} bind def
/C5 {BL [] 0 setdash 2 copy moveto
	2 copy vpt 0 90 arc
	2 copy moveto
	2 copy vpt 180 270 arc closepath fill
	vpt 0 360 arc} bind def
/C6 {BL [] 0 setdash 2 copy moveto
	2 copy vpt 90 270 arc closepath fill
	vpt 0 360 arc closepath} bind def
/C7 {BL [] 0 setdash 2 copy moveto
	2 copy vpt 0 270 arc closepath fill
	vpt 0 360 arc closepath} bind def
/C8 {BL [] 0 setdash 2 copy moveto
	2 copy vpt 270 360 arc closepath fill
	vpt 0 360 arc closepath} bind def
/C9 {BL [] 0 setdash 2 copy moveto
	2 copy vpt 270 450 arc closepath fill
	vpt 0 360 arc closepath} bind def
/C10 {BL [] 0 setdash 2 copy 2 copy moveto vpt 270 360 arc closepath fill
	2 copy moveto
	2 copy vpt 90 180 arc closepath fill
	vpt 0 360 arc closepath} bind def
/C11 {BL [] 0 setdash 2 copy moveto
	2 copy vpt 0 180 arc closepath fill
	2 copy moveto
	2 copy vpt 270 360 arc closepath fill
	vpt 0 360 arc closepath} bind def
/C12 {BL [] 0 setdash 2 copy moveto
	2 copy vpt 180 360 arc closepath fill
	vpt 0 360 arc closepath} bind def
/C13 {BL [] 0 setdash 2 copy moveto
	2 copy vpt 0 90 arc closepath fill
	2 copy moveto
	2 copy vpt 180 360 arc closepath fill
	vpt 0 360 arc closepath} bind def
/C14 {BL [] 0 setdash 2 copy moveto
	2 copy vpt 90 360 arc closepath fill
	vpt 0 360 arc} bind def
/C15 {BL [] 0 setdash 2 copy vpt 0 360 arc closepath fill
	vpt 0 360 arc closepath} bind def
/Rec {newpath 4 2 roll moveto 1 index 0 rlineto 0 exch rlineto
	neg 0 rlineto closepath} bind def
/Square {dup Rec} bind def
/Bsquare {vpt sub exch vpt sub exch vpt2 Square} bind def
/S0 {BL [] 0 setdash 2 copy moveto 0 vpt rlineto BL Bsquare} bind def
/S1 {BL [] 0 setdash 2 copy vpt Square fill Bsquare} bind def
/S2 {BL [] 0 setdash 2 copy exch vpt sub exch vpt Square fill Bsquare} bind def
/S3 {BL [] 0 setdash 2 copy exch vpt sub exch vpt2 vpt Rec fill Bsquare} bind def
/S4 {BL [] 0 setdash 2 copy exch vpt sub exch vpt sub vpt Square fill Bsquare} bind def
/S5 {BL [] 0 setdash 2 copy 2 copy vpt Square fill
	exch vpt sub exch vpt sub vpt Square fill Bsquare} bind def
/S6 {BL [] 0 setdash 2 copy exch vpt sub exch vpt sub vpt vpt2 Rec fill Bsquare} bind def
/S7 {BL [] 0 setdash 2 copy exch vpt sub exch vpt sub vpt vpt2 Rec fill
	2 copy vpt Square fill Bsquare} bind def
/S8 {BL [] 0 setdash 2 copy vpt sub vpt Square fill Bsquare} bind def
/S9 {BL [] 0 setdash 2 copy vpt sub vpt vpt2 Rec fill Bsquare} bind def
/S10 {BL [] 0 setdash 2 copy vpt sub vpt Square fill 2 copy exch vpt sub exch vpt Square fill
	Bsquare} bind def
/S11 {BL [] 0 setdash 2 copy vpt sub vpt Square fill 2 copy exch vpt sub exch vpt2 vpt Rec fill
	Bsquare} bind def
/S12 {BL [] 0 setdash 2 copy exch vpt sub exch vpt sub vpt2 vpt Rec fill Bsquare} bind def
/S13 {BL [] 0 setdash 2 copy exch vpt sub exch vpt sub vpt2 vpt Rec fill
	2 copy vpt Square fill Bsquare} bind def
/S14 {BL [] 0 setdash 2 copy exch vpt sub exch vpt sub vpt2 vpt Rec fill
	2 copy exch vpt sub exch vpt Square fill Bsquare} bind def
/S15 {BL [] 0 setdash 2 copy Bsquare fill Bsquare} bind def
/D0 {gsave translate 45 rotate 0 0 S0 stroke grestore} bind def
/D1 {gsave translate 45 rotate 0 0 S1 stroke grestore} bind def
/D2 {gsave translate 45 rotate 0 0 S2 stroke grestore} bind def
/D3 {gsave translate 45 rotate 0 0 S3 stroke grestore} bind def
/D4 {gsave translate 45 rotate 0 0 S4 stroke grestore} bind def
/D5 {gsave translate 45 rotate 0 0 S5 stroke grestore} bind def
/D6 {gsave translate 45 rotate 0 0 S6 stroke grestore} bind def
/D7 {gsave translate 45 rotate 0 0 S7 stroke grestore} bind def
/D8 {gsave translate 45 rotate 0 0 S8 stroke grestore} bind def
/D9 {gsave translate 45 rotate 0 0 S9 stroke grestore} bind def
/D10 {gsave translate 45 rotate 0 0 S10 stroke grestore} bind def
/D11 {gsave translate 45 rotate 0 0 S11 stroke grestore} bind def
/D12 {gsave translate 45 rotate 0 0 S12 stroke grestore} bind def
/D13 {gsave translate 45 rotate 0 0 S13 stroke grestore} bind def
/D14 {gsave translate 45 rotate 0 0 S14 stroke grestore} bind def
/D15 {gsave translate 45 rotate 0 0 S15 stroke grestore} bind def
/DiaE {stroke [] 0 setdash vpt add M
  hpt neg vpt neg V hpt vpt neg V
  hpt vpt V hpt neg vpt V closepath stroke} def
/BoxE {stroke [] 0 setdash exch hpt sub exch vpt add M
  0 vpt2 neg V hpt2 0 V 0 vpt2 V
  hpt2 neg 0 V closepath stroke} def
/TriUE {stroke [] 0 setdash vpt 1.12 mul add M
  hpt neg vpt -1.62 mul V
  hpt 2 mul 0 V
  hpt neg vpt 1.62 mul V closepath stroke} def
/TriDE {stroke [] 0 setdash vpt 1.12 mul sub M
  hpt neg vpt 1.62 mul V
  hpt 2 mul 0 V
  hpt neg vpt -1.62 mul V closepath stroke} def
/PentE {stroke [] 0 setdash gsave
  translate 0 hpt M 4 {72 rotate 0 hpt L} repeat
  closepath stroke grestore} def
/CircE {stroke [] 0 setdash 
  hpt 0 360 arc stroke} def
/Opaque {gsave closepath 1 setgray fill grestore 0 setgray closepath} def
/DiaW {stroke [] 0 setdash vpt add M
  hpt neg vpt neg V hpt vpt neg V
  hpt vpt V hpt neg vpt V Opaque stroke} def
/BoxW {stroke [] 0 setdash exch hpt sub exch vpt add M
  0 vpt2 neg V hpt2 0 V 0 vpt2 V
  hpt2 neg 0 V Opaque stroke} def
/TriUW {stroke [] 0 setdash vpt 1.12 mul add M
  hpt neg vpt -1.62 mul V
  hpt 2 mul 0 V
  hpt neg vpt 1.62 mul V Opaque stroke} def
/TriDW {stroke [] 0 setdash vpt 1.12 mul sub M
  hpt neg vpt 1.62 mul V
  hpt 2 mul 0 V
  hpt neg vpt -1.62 mul V Opaque stroke} def
/PentW {stroke [] 0 setdash gsave
  translate 0 hpt M 4 {72 rotate 0 hpt L} repeat
  Opaque stroke grestore} def
/CircW {stroke [] 0 setdash 
  hpt 0 360 arc Opaque stroke} def
/BoxFill {gsave Rec 1 setgray fill grestore} def
/Density {
  /Fillden exch def
  currentrgbcolor
  /ColB exch def /ColG exch def /ColR exch def
  /ColR ColR Fillden mul Fillden sub 1 add def
  /ColG ColG Fillden mul Fillden sub 1 add def
  /ColB ColB Fillden mul Fillden sub 1 add def
  ColR ColG ColB setrgbcolor} def
/BoxColFill {gsave Rec PolyFill} def
/PolyFill {gsave Density fill grestore grestore} def
/h {rlineto rlineto rlineto gsave closepath fill grestore} bind def
%
% PostScript Level 1 Pattern Fill routine for rectangles
% Usage: x y w h s a XX PatternFill
%	x,y = lower left corner of box to be filled
%	w,h = width and height of box
%	  a = angle in degrees between lines and x-axis
%	 XX = 0/1 for no/yes cross-hatch
%
/PatternFill {gsave /PFa [ 9 2 roll ] def
  PFa 0 get PFa 2 get 2 div add PFa 1 get PFa 3 get 2 div add translate
  PFa 2 get -2 div PFa 3 get -2 div PFa 2 get PFa 3 get Rec
  TransparentPatterns {} {gsave 1 setgray fill grestore} ifelse
  clip
  currentlinewidth 0.5 mul setlinewidth
  /PFs PFa 2 get dup mul PFa 3 get dup mul add sqrt def
  0 0 M PFa 5 get rotate PFs -2 div dup translate
  0 1 PFs PFa 4 get div 1 add floor cvi
	{PFa 4 get mul 0 M 0 PFs V} for
  0 PFa 6 get ne {
	0 1 PFs PFa 4 get div 1 add floor cvi
	{PFa 4 get mul 0 2 1 roll M PFs 0 V} for
 } if
  stroke grestore} def
%
/languagelevel where
 {pop languagelevel} {1} ifelse
 2 lt
	{/InterpretLevel1 true def}
	{/InterpretLevel1 Level1 def}
 ifelse
%
% PostScript level 2 pattern fill definitions
%
/Level2PatternFill {
/Tile8x8 {/PaintType 2 /PatternType 1 /TilingType 1 /BBox [0 0 8 8] /XStep 8 /YStep 8}
	bind def
/KeepColor {currentrgbcolor [/Pattern /DeviceRGB] setcolorspace} bind def
<< Tile8x8
 /PaintProc {0.5 setlinewidth pop 0 0 M 8 8 L 0 8 M 8 0 L stroke} 
>> matrix makepattern
/Pat1 exch def
<< Tile8x8
 /PaintProc {0.5 setlinewidth pop 0 0 M 8 8 L 0 8 M 8 0 L stroke
	0 4 M 4 8 L 8 4 L 4 0 L 0 4 L stroke}
>> matrix makepattern
/Pat2 exch def
<< Tile8x8
 /PaintProc {0.5 setlinewidth pop 0 0 M 0 8 L
	8 8 L 8 0 L 0 0 L fill}
>> matrix makepattern
/Pat3 exch def
<< Tile8x8
 /PaintProc {0.5 setlinewidth pop -4 8 M 8 -4 L
	0 12 M 12 0 L stroke}
>> matrix makepattern
/Pat4 exch def
<< Tile8x8
 /PaintProc {0.5 setlinewidth pop -4 0 M 8 12 L
	0 -4 M 12 8 L stroke}
>> matrix makepattern
/Pat5 exch def
<< Tile8x8
 /PaintProc {0.5 setlinewidth pop -2 8 M 4 -4 L
	0 12 M 8 -4 L 4 12 M 10 0 L stroke}
>> matrix makepattern
/Pat6 exch def
<< Tile8x8
 /PaintProc {0.5 setlinewidth pop -2 0 M 4 12 L
	0 -4 M 8 12 L 4 -4 M 10 8 L stroke}
>> matrix makepattern
/Pat7 exch def
<< Tile8x8
 /PaintProc {0.5 setlinewidth pop 8 -2 M -4 4 L
	12 0 M -4 8 L 12 4 M 0 10 L stroke}
>> matrix makepattern
/Pat8 exch def
<< Tile8x8
 /PaintProc {0.5 setlinewidth pop 0 -2 M 12 4 L
	-4 0 M 12 8 L -4 4 M 8 10 L stroke}
>> matrix makepattern
/Pat9 exch def
/Pattern1 {PatternBgnd KeepColor Pat1 setpattern} bind def
/Pattern2 {PatternBgnd KeepColor Pat2 setpattern} bind def
/Pattern3 {PatternBgnd KeepColor Pat3 setpattern} bind def
/Pattern4 {PatternBgnd KeepColor Landscape {Pat5} {Pat4} ifelse setpattern} bind def
/Pattern5 {PatternBgnd KeepColor Landscape {Pat4} {Pat5} ifelse setpattern} bind def
/Pattern6 {PatternBgnd KeepColor Landscape {Pat9} {Pat6} ifelse setpattern} bind def
/Pattern7 {PatternBgnd KeepColor Landscape {Pat8} {Pat7} ifelse setpattern} bind def
} def
%
%
%End of PostScript Level 2 code
%
/PatternBgnd {
  TransparentPatterns {} {gsave 1 setgray fill grestore} ifelse
} def
%
% Substitute for Level 2 pattern fill codes with
% grayscale if Level 2 support is not selected.
%
/Level1PatternFill {
/Pattern1 {0.250 Density} bind def
/Pattern2 {0.500 Density} bind def
/Pattern3 {0.750 Density} bind def
/Pattern4 {0.125 Density} bind def
/Pattern5 {0.375 Density} bind def
/Pattern6 {0.625 Density} bind def
/Pattern7 {0.875 Density} bind def
} def
%
% Now test for support of Level 2 code
%
Level1 {Level1PatternFill} {Level2PatternFill} ifelse
%
/Symbol-Oblique /Symbol findfont [1 0 .167 1 0 0] makefont
dup length dict begin {1 index /FID eq {pop pop} {def} ifelse} forall
currentdict end definefont pop
Level1 SuppressPDFMark or 
{} {
/SDict 10 dict def
systemdict /pdfmark known not {
  userdict /pdfmark systemdict /cleartomark get put
} if
SDict begin [
  /Title (Recall.eps)
  /Subject (gnuplot plot)
  /Creator (gnuplot 4.6 patchlevel 4)
  /Author (danny)
%  /Producer (gnuplot)
%  /Keywords ()
  /CreationDate (Fri Sep  4 11:56:38 2015)
  /DOCINFO pdfmark
end
} ifelse
end
%%EndProlog
%%Page: 1 1
gnudict begin
gsave
doclip
50 50 translate
0.050 0.050 scale
0 setgray
newpath
(Helvetica) findfont 240 scalefont setfont
BackgroundColor 0 lt 3 1 roll 0 lt exch 0 lt or or not {BackgroundColor C 1.000 0 0 7200.00 5040.00 BoxColFill} if
1.000 UL
LTb
LCb setrgbcolor
1.000 UL
LTa
LCa setrgbcolor
1176 768 M
5591 0 V
stroke
LTb
LCb setrgbcolor
1176 768 M
63 0 V
/Helvetica findfont 140 scalefont setfont
/vshift -46 def
-207 0 R
( 0.2) Rshow
/Helvetica findfont 240 scalefont setfont
/vshift -80 def
1.000 UL
LTb
LCb setrgbcolor
1.000 UL
LTa
LCa setrgbcolor
1176 1266 M
5591 0 V
stroke
LTb
LCb setrgbcolor
1176 1266 M
63 0 V
/Helvetica findfont 140 scalefont setfont
/vshift -46 def
-207 0 R
( 0.3) Rshow
/Helvetica findfont 240 scalefont setfont
/vshift -80 def
1.000 UL
LTb
LCb setrgbcolor
1.000 UL
LTa
LCa setrgbcolor
1176 1764 M
5591 0 V
stroke
LTb
LCb setrgbcolor
1176 1764 M
63 0 V
/Helvetica findfont 140 scalefont setfont
/vshift -46 def
-207 0 R
( 0.4) Rshow
/Helvetica findfont 240 scalefont setfont
/vshift -80 def
1.000 UL
LTb
LCb setrgbcolor
1.000 UL
LTa
LCa setrgbcolor
1176 2262 M
5591 0 V
stroke
LTb
LCb setrgbcolor
1176 2262 M
63 0 V
/Helvetica findfont 140 scalefont setfont
/vshift -46 def
-207 0 R
( 0.5) Rshow
/Helvetica findfont 240 scalefont setfont
/vshift -80 def
1.000 UL
LTb
LCb setrgbcolor
1.000 UL
LTa
LCa setrgbcolor
1176 2760 M
5591 0 V
stroke
LTb
LCb setrgbcolor
1176 2760 M
63 0 V
/Helvetica findfont 140 scalefont setfont
/vshift -46 def
-207 0 R
( 0.6) Rshow
/Helvetica findfont 240 scalefont setfont
/vshift -80 def
1.000 UL
LTb
LCb setrgbcolor
1.000 UL
LTa
LCa setrgbcolor
1176 3257 M
5591 0 V
stroke
LTb
LCb setrgbcolor
1176 3257 M
63 0 V
/Helvetica findfont 140 scalefont setfont
/vshift -46 def
-207 0 R
( 0.7) Rshow
/Helvetica findfont 240 scalefont setfont
/vshift -80 def
1.000 UL
LTb
LCb setrgbcolor
1.000 UL
LTa
LCa setrgbcolor
1176 3755 M
5591 0 V
stroke
LTb
LCb setrgbcolor
1176 3755 M
63 0 V
/Helvetica findfont 140 scalefont setfont
/vshift -46 def
-207 0 R
( 0.8) Rshow
/Helvetica findfont 240 scalefont setfont
/vshift -80 def
1.000 UL
LTb
LCb setrgbcolor
1.000 UL
LTa
LCa setrgbcolor
1176 4253 M
5591 0 V
stroke
LTb
LCb setrgbcolor
1176 4253 M
63 0 V
/Helvetica findfont 140 scalefont setfont
/vshift -46 def
-207 0 R
( 0.9) Rshow
/Helvetica findfont 240 scalefont setfont
/vshift -80 def
1.000 UL
LTb
LCb setrgbcolor
1.000 UL
LTa
LCa setrgbcolor
1176 4751 M
5591 0 V
stroke
LTb
LCb setrgbcolor
1176 4751 M
63 0 V
/Helvetica findfont 140 scalefont setfont
/vshift -46 def
-207 0 R
( 1) Rshow
/Helvetica findfont 240 scalefont setfont
/vshift -80 def
1.000 UL
LTb
LCb setrgbcolor
1.000 UL
LTa
LCa setrgbcolor
1176 768 M
0 3983 V
stroke
LTb
LCb setrgbcolor
1176 768 M
0 63 V
/Helvetica findfont 140 scalefont setfont
/vshift -46 def
0 -303 R
( 0) Cshow
/Helvetica findfont 240 scalefont setfont
/vshift -80 def
1.000 UL
LTb
LCb setrgbcolor
1.000 UL
LTa
LCa setrgbcolor
1735 768 M
0 3983 V
stroke
LTb
LCb setrgbcolor
1735 768 M
0 63 V
/Helvetica findfont 140 scalefont setfont
/vshift -46 def
0 -303 R
( 50) Cshow
/Helvetica findfont 240 scalefont setfont
/vshift -80 def
1.000 UL
LTb
LCb setrgbcolor
1.000 UL
LTa
LCa setrgbcolor
2294 768 M
0 3983 V
stroke
LTb
LCb setrgbcolor
2294 768 M
0 63 V
/Helvetica findfont 140 scalefont setfont
/vshift -46 def
0 -303 R
( 100) Cshow
/Helvetica findfont 240 scalefont setfont
/vshift -80 def
1.000 UL
LTb
LCb setrgbcolor
1.000 UL
LTa
LCa setrgbcolor
2853 768 M
0 3983 V
stroke
LTb
LCb setrgbcolor
2853 768 M
0 63 V
/Helvetica findfont 140 scalefont setfont
/vshift -46 def
0 -303 R
( 150) Cshow
/Helvetica findfont 240 scalefont setfont
/vshift -80 def
1.000 UL
LTb
LCb setrgbcolor
1.000 UL
LTa
LCa setrgbcolor
3412 768 M
0 3983 V
stroke
LTb
LCb setrgbcolor
3412 768 M
0 63 V
/Helvetica findfont 140 scalefont setfont
/vshift -46 def
0 -303 R
( 200) Cshow
/Helvetica findfont 240 scalefont setfont
/vshift -80 def
1.000 UL
LTb
LCb setrgbcolor
1.000 UL
LTa
LCa setrgbcolor
3972 768 M
0 3983 V
stroke
LTb
LCb setrgbcolor
3972 768 M
0 63 V
/Helvetica findfont 140 scalefont setfont
/vshift -46 def
0 -303 R
( 250) Cshow
/Helvetica findfont 240 scalefont setfont
/vshift -80 def
1.000 UL
LTb
LCb setrgbcolor
1.000 UL
LTa
LCa setrgbcolor
4531 768 M
0 3983 V
stroke
LTb
LCb setrgbcolor
4531 768 M
0 63 V
/Helvetica findfont 140 scalefont setfont
/vshift -46 def
0 -303 R
( 300) Cshow
/Helvetica findfont 240 scalefont setfont
/vshift -80 def
1.000 UL
LTb
LCb setrgbcolor
1.000 UL
LTa
LCa setrgbcolor
5090 768 M
0 3983 V
stroke
LTb
LCb setrgbcolor
5090 768 M
0 63 V
/Helvetica findfont 140 scalefont setfont
/vshift -46 def
0 -303 R
( 350) Cshow
/Helvetica findfont 240 scalefont setfont
/vshift -80 def
1.000 UL
LTb
LCb setrgbcolor
1.000 UL
LTa
LCa setrgbcolor
5649 768 M
0 3983 V
stroke
LTb
LCb setrgbcolor
5649 768 M
0 63 V
/Helvetica findfont 140 scalefont setfont
/vshift -46 def
0 -303 R
( 400) Cshow
/Helvetica findfont 240 scalefont setfont
/vshift -80 def
1.000 UL
LTb
LCb setrgbcolor
1.000 UL
LTa
LCa setrgbcolor
6208 768 M
0 3983 V
stroke
LTb
LCb setrgbcolor
6208 768 M
0 63 V
/Helvetica findfont 140 scalefont setfont
/vshift -46 def
0 -303 R
( 450) Cshow
/Helvetica findfont 240 scalefont setfont
/vshift -80 def
1.000 UL
LTb
LCb setrgbcolor
1.000 UL
LTa
LCa setrgbcolor
6767 768 M
0 3983 V
stroke
LTb
LCb setrgbcolor
6767 768 M
0 63 V
/Helvetica findfont 140 scalefont setfont
/vshift -46 def
0 -303 R
( 500) Cshow
/Helvetica findfont 240 scalefont setfont
/vshift -80 def
1.000 UL
LTb
LCb setrgbcolor
1.000 UL
LTb
LCb setrgbcolor
1176 4751 N
0 -3983 V
5591 0 V
0 3983 V
-5591 0 V
Z stroke
LCb setrgbcolor
/Helvetica findfont 160 scalefont setfont
/vshift -53 def
192 2759 M
currentpoint gsave translate -270 rotate 0 0 M
(Recall) Cshow
grestore
/Helvetica findfont 240 scalefont setfont
/vshift -80 def
LTb
LCb setrgbcolor
/Helvetica findfont 160 scalefont setfont
/vshift -53 def
3971 168 M
(Iterationen in 100) Cshow
/Helvetica findfont 240 scalefont setfont
/vshift -80 def
LTb
1.000 UP
1.000 UL
LTb
LCb setrgbcolor
% Begin plot #1
1.000 UL
LT0
0.00 0.00 0.00 C /Helvetica findfont 240 scalefont setfont
1179 768 M
8 2511 V
11 265 V
12 86 V
11 60 V
11 22 V
11 -66 V
11 188 V
11 -135 V
12 86 V
11 -2451 V
11 2473 V
11 -1241 V
11 1375 V
12 -2056 V
11 2058 V
11 -197 V
11 57 V
11 -1921 V
11 391 V
12 1792 V
11 -1843 V
11 -308 V
11 -115 V
11 2272 V
12 -2540 V
11 507 V
11 -140 V
11 2167 V
11 0 V
11 57 V
12 -31 V
11 41 V
11 -6 V
11 7 V
11 -148 V
12 -240 V
11 -1584 V
11 1382 V
11 477 V
11 136 V
11 -10 V
12 19 V
11 12 V
11 -279 V
11 274 V
11 6 V
12 -231 V
11 230 V
11 6 V
11 -76 V
11 -45 V
11 -7 V
12 128 V
11 24 V
11 -12 V
11 -148 V
11 33 V
12 -1229 V
11 -370 V
11 1726 V
11 -214 V
11 -978 V
11 1177 V
12 -229 V
11 8 V
11 -118 V
11 -640 V
11 1023 V
12 -1099 V
11 70 V
11 -272 V
11 1300 V
11 -214 V
11 -1313 V
12 1502 V
11 -227 V
11 -87 V
11 -345 V
11 663 V
12 -4 V
11 14 V
11 -670 V
11 -689 V
11 1320 V
11 -1488 V
12 1545 V
11 -305 V
11 315 V
11 -2 V
11 -213 V
12 -1580 V
11 555 V
11 1066 V
11 -55 V
11 -437 V
11 -414 V
12 1077 V
11 -923 V
11 653 V
11 -765 V
11 863 V
12 181 V
11 -1483 V
11 734 V
stroke 2339 3509 M
11 -241 V
11 524 V
11 -541 V
12 213 V
11 410 V
11 -272 V
11 -406 V
11 193 V
12 -668 V
11 768 V
11 603 V
11 -58 V
11 -17 V
11 111 V
12 -211 V
11 0 V
11 -454 V
11 524 V
11 138 V
12 -136 V
11 -25 V
11 145 V
11 -53 V
11 102 V
11 -106 V
12 -7 V
11 -789 V
11 -145 V
11 1095 V
11 37 V
12 -167 V
11 -683 V
11 852 V
11 -7 V
11 -849 V
11 861 V
12 -715 V
11 410 V
11 -384 V
11 413 V
11 10 V
12 -687 V
11 21 V
11 912 V
11 -187 V
11 35 V
11 0 V
12 -45 V
11 -1027 V
11 1047 V
11 -55 V
11 -1014 V
12 428 V
11 801 V
11 -853 V
11 -209 V
11 907 V
11 226 V
12 -165 V
11 155 V
11 -192 V
11 -212 V
11 -576 V
12 974 V
11 -2 V
11 -931 V
11 124 V
11 -52 V
11 837 V
12 14 V
11 30 V
11 -266 V
11 141 V
11 118 V
12 -75 V
11 -678 V
11 13 V
11 -127 V
11 -28 V
11 351 V
12 305 V
11 64 V
11 152 V
11 -789 V
11 -394 V
12 477 V
11 699 V
11 -981 V
11 201 V
11 789 V
11 19 V
12 -279 V
11 -17 V
11 283 V
11 14 V
11 -701 V
12 631 V
11 -610 V
11 652 V
11 36 V
11 -32 V
11 -202 V
12 -426 V
11 638 V
stroke 3502 4266 M
11 -978 V
11 954 V
11 28 V
12 -198 V
11 46 V
11 -216 V
11 104 V
11 -968 V
11 368 V
12 879 V
11 -775 V
11 523 V
11 239 V
11 1 V
12 -19 V
11 -1139 V
11 647 V
11 -449 V
11 716 V
11 249 V
12 -28 V
11 -233 V
11 45 V
11 -68 V
11 -13 V
12 -671 V
11 -79 V
11 231 V
11 -174 V
11 811 V
11 -9 V
12 28 V
11 -706 V
11 531 V
11 -951 V
11 109 V
12 901 V
11 110 V
11 166 V
11 -222 V
11 241 V
12 -812 V
11 -320 V
11 829 V
11 227 V
11 -1078 V
11 1115 V
12 -31 V
11 -107 V
11 151 V
11 17 V
11 -15 V
12 -262 V
11 133 V
11 -737 V
11 827 V
11 -734 V
11 -295 V
12 257 V
11 815 V
11 -934 V
11 233 V
11 -265 V
12 586 V
11 390 V
11 -20 V
11 -240 V
11 101 V
11 145 V
12 -311 V
11 96 V
11 36 V
11 -585 V
11 37 V
12 339 V
11 375 V
11 -717 V
11 594 V
11 142 V
11 -689 V
12 670 V
11 -101 V
11 125 V
11 -1 V
11 -421 V
12 417 V
11 -185 V
11 -132 V
11 31 V
11 -671 V
11 802 V
12 -444 V
11 595 V
11 4 V
11 -275 V
11 276 V
12 -179 V
11 -290 V
11 -297 V
11 41 V
11 390 V
11 -600 V
12 935 V
11 -113 V
stroke 4665 4167 M
11 -464 V
11 553 V
11 -4 V
12 -1113 V
11 441 V
11 -359 V
11 1023 V
11 -133 V
11 -21 V
12 -45 V
11 -31 V
11 82 V
11 78 V
11 -580 V
12 692 V
11 -232 V
11 242 V
11 -33 V
11 -865 V
11 118 V
12 142 V
11 437 V
11 161 V
11 -232 V
11 183 V
12 37 V
11 -345 V
11 -351 V
11 -203 V
11 585 V
11 356 V
12 -199 V
11 188 V
11 -750 V
11 142 V
11 -194 V
12 600 V
11 185 V
11 -375 V
11 -539 V
11 711 V
11 -630 V
12 832 V
11 11 V
11 -217 V
11 -45 V
11 -101 V
12 186 V
11 -597 V
11 183 V
11 24 V
11 346 V
11 -215 V
12 -348 V
11 639 V
11 140 V
11 -819 V
11 539 V
12 -40 V
11 -501 V
11 464 V
11 -146 V
11 279 V
11 -626 V
12 854 V
11 -244 V
11 -464 V
11 -121 V
11 -69 V
12 259 V
11 602 V
11 -622 V
11 -267 V
11 908 V
11 -515 V
12 263 V
11 -760 V
11 731 V
11 288 V
11 -237 V
12 101 V
11 150 V
11 -283 V
11 -103 V
11 375 V
11 -162 V
12 -388 V
11 -123 V
11 72 V
11 -245 V
11 652 V
12 -619 V
11 814 V
11 -164 V
11 191 V
11 -29 V
11 -836 V
12 174 V
11 686 V
11 -294 V
11 -70 V
11 34 V
12 126 V
11 -165 V
stroke 5828 3913 M
11 334 V
11 -122 V
11 153 V
11 -9 V
12 -572 V
11 322 V
11 243 V
11 -212 V
11 70 V
12 -29 V
11 -438 V
11 589 V
11 -714 V
11 350 V
11 208 V
12 -14 V
11 -719 V
11 -64 V
11 421 V
11 552 V
12 0 V
11 -200 V
11 190 V
11 -162 V
11 179 V
11 -412 V
12 -248 V
11 111 V
11 -409 V
11 677 V
11 -470 V
12 528 V
11 -217 V
11 380 V
11 -197 V
11 -596 V
11 812 V
12 -723 V
11 714 V
11 -351 V
11 388 V
11 -612 V
12 206 V
11 120 V
11 -22 V
11 113 V
11 210 V
11 -17 V
12 -110 V
11 -38 V
11 -578 V
11 155 V
11 541 V
12 -126 V
11 184 V
11 -365 V
11 177 V
11 180 V
11 -12 V
12 -182 V
11 -726 V
11 177 V
11 414 V
11 -21 V
12 -674 V
11 1017 V
11 -1 V
11 -285 V
11 96 V
11 181 V
12 -159 V
11 -7 V
11 162 V
11 -170 V
11 -492 V
12 667 V
11 -158 V
11 -397 V
11 537 V
11 -564 V
11 23 V
12 -336 V
11 218 V
% End plot #1
stroke
LTb
LCb setrgbcolor
1176 4751 N
0 -3983 V
5591 0 V
0 3983 V
-5591 0 V
Z stroke
1.000 UP
1.000 UL
LTb
LCb setrgbcolor
stroke
grestore
end
showpage
